{
  "mod_version": "v1",

  "files": [
    {
      "name": "igb-4.4.180plus-broadwellnk.tgz",
      "url": "https://gitea.com/oldlei/rp-ext/raw/main/igb/releases/igb-4.4.180plus-broadwellnk.tgz",
      "sha256": "a76aaeba6778378a064c79dafb5477f5128e74aca69876b723c9382d635d7e4b",
      "packed": true
    },
    {
      "name": "check-igb.sh",
      "url": "https://gitea.com/oldlei/rp-ext/raw/main/igb/src/check-igb.sh",
      "sha256": "1c287077390c24764eeb0f1e768232cfd4e26e0cb5b01154464d7181d1c3ebf4",
      "packed": false
    }
  ],

  "kmods": {
    "dca.ko": "",
    "igb.ko":""
  },

    "scripts": {
    "on_boot": "check-igb.sh"
  }

}
