{
  "mod_version": "v1",

  "files": [
    {
      "name": "qlcnic-3.10.108.tgz",
      "url": "https://gitea.com/oldlei/rp-ext/raw/main/qlcnic/releases/qlcnic-3.10.108.tgz",
      "sha256": "5eba87ffedbedf334051408b409ae030cf0053ab94e8ed26ab85e0fbf31ea623",
      "packed": true
    },
    {
      "name": "check-qlcnic.sh",
      "url": "https://gitea.com/oldlei/rp-ext/raw/main/qlcnic/src/check-qlcnic.sh",
      "sha256": "ea4177481b0914e1cb55338dca310d7f07ef39a39dd95e0158e773d1d59d8092",
      "packed": false
    }
  ],

  "kmods": {
    "qlcnic.ko": ""
  },

    "scripts": {
    "on_boot": "check-qlcnic.sh"
  }

}
