{
  "mod_version": "v1",

  "files": [
    {
      "name": "bnx2-4.4.180plus-denverton.tgz",
      "url": "https://gitea.com/oldlei/rp-ext/raw/main/bnx2/releases/bnx2-4.4.180plus-denverton.tgz",
      "sha256": "3743eb22a4fefe443bb9354c40d6bfb857991da672b835369a8f41283cb6a82e",
      "packed": true
    },
    {
      "name": "check-bnx2.sh",
      "url": "https://gitea.com/oldlei/rp-ext/raw/main/bnx2/src/check-bnx2.sh",
      "sha256": "10104a3f26a9f5a88589de8051c4a68872d8cf0597a6fff9feafc9c211483f88",
      "packed": false
    }
  ],

  "kmods": {
    "bnx2.ko": ""
  },

    "scripts": {
    "on_boot": "check-bnx2.sh"
  }

}
