{
  "mod_version": "v1",

  "files": [
    {
      "name": "3w-sas-4.4.180plus-denverton.tgz",
      "url": "https://gitea.com/oldlei/rp-ext/raw/main/3w-sas/releases/3w-sas-4.4.180plus-denverton.tgz",
      "sha256": "6944b93c3902ce9f5cf24df340f819d64df1e1ef396a862cc919b376c2f519dc",
      "packed": true
    },
    {
      "name": "check-3w-sas.sh",
      "url": "https://gitea.com/oldlei/rp-ext/raw/main/3w-sas/src/check-3w-sas.sh",
      "sha256": "918a66c241bf48dcc71af587f038206ac4d8b87ab58b5954c9c9edddd6cd4b5f",
      "packed": false
    }
  ],

  "kmods": {
    "3w-sas.ko": ""
  },

    "scripts": {
    "on_boot": "check-3w-sas.sh"
  }

}
