{
  "mod_version": "v1",

  "files": [
    {
      "name": "hpsa-4.4.180plus-broadwellnk.tgz",
      "url": "https://gitea.com/oldlei/rp-ext/raw/main/hpsa/releases/hpsa-4.4.180plus-broadwellnk.tgz",
      "sha256": "6e016da929485d607387393f8478d5c2ffc0776805c2b92265ff0927b5bf7177",
      "packed": true
    },
    {
      "name": "check-hpsa.sh",
      "url": "https://gitea.com/oldlei/rp-ext/raw/main/hpsa/src/check-hpsa.sh",
      "sha256": "08d8a429134b1cfcd3a498ffe8f686804de8f621f8b86336fed60569c1427952",
      "packed": false
    }
  ],

  "kmods": {
    "hpsa.ko":""
  },

    "scripts": {
    "on_boot": "check-hpsa.sh"
  }

}
