{
  "mod_version": "v1",

  "files": [
    {
      "name": "r8125-3.10.108.tgz",
      "url": "https://gitea.com/oldlei/rp-ext/raw/main/r8125/releases/r8125-3.10.108.tgz",
      "sha256": "574e0ead9494514c0a0502b80cd3febecb0fa00ae12bf6dd8eb6bfa0a1129796",
      "packed": true
    },
    {
      "name": "check-r8125.sh",
      "url": "https://gitea.com/oldlei/rp-ext/raw/main/r8125/src/check-r8125.sh",
      "sha256": "ec4f266812ed308c0e15363315cfe696a2eee48b024130260fca15bd6e63dd91",
      "packed": false
    }
  ],

  "kmods": {
    "r8125.ko": ""
  },

    "scripts": {
    "on_boot": "check-r8125.sh"
  }

}
