{
  "mod_version": "v1",

  "files": [
    {
      "name": "atl1e-4.4.180plus-geminilake.tgz",
      "url": "https://gitea.com/oldlei/rp-ext/raw/main/atl1e/releases/atl1e-4.4.180plus-geminilake.tgz",
      "sha256": "fbaa4864237ace98527011fdcb2b6182e9be5a6151cc09d4c76ea966b3626e44",
      "packed": true
    },
    {
      "name": "check-atl1e.sh",
      "url": "https://gitea.com/oldlei/rp-ext/raw/main/atl1e/src/check-atl1e.sh",
      "sha256": "ccccaa3b57cb87c9a122aaba27001c084225f87006ff944d5ddffd0903e776c4",
      "packed": false
    }
  ],

  "kmods": {
    "atl1e.ko": ""
  },

    "scripts": {
    "on_boot": "check-atl1e.sh"
  }

}
