{
  "mod_version": "v1",

  "files": [
    {
      "name": "atl1e-4.4.180plus-denverton.tgz",
      "url": "https://gitea.com/oldlei/rp-ext/raw/main/atl1e/releases/atl1e-4.4.180plus-denverton.tgz",
      "sha256": "c10e1bc436522506c89425729667ce601c6cf49507a4dcf9de0db8fd1e0fa5ba",
      "packed": true
    },
    {
      "name": "check-atl1e.sh",
      "url": "https://gitea.com/oldlei/rp-ext/raw/main/atl1e/src/check-atl1e.sh",
      "sha256": "ccccaa3b57cb87c9a122aaba27001c084225f87006ff944d5ddffd0903e776c4",
      "packed": false
    }
  ],

  "kmods": {
    "atl1e.ko": ""
  },

    "scripts": {
    "on_boot": "check-atl1e.sh"
  }

}
