{
  "mod_version": "v1",

  "files": [
    {
      "name": "atl1c-4.4.180plus-broadwellnk.tgz",
      "url": "https://gitea.com/oldlei/rp-ext/raw/main/atl1c/releases/atl1c-4.4.180plus-broadwellnk.tgz",
      "sha256": "3e267310f8592d0ee5c0b455374b98785833a6392a4521ab7ce51ee74160d501",
      "packed": true
    },
    {
      "name": "check-atl1c.sh",
      "url": "https://gitea.com/oldlei/rp-ext/raw/main/atl1c/src/check-atl1c.sh",
      "sha256": "72f49168803fb12840215370379198dfe07c14cc9bf7f9dd82b28fae88162eac",
      "packed": false
    }
  ],

  "kmods": {
    "atl1c.ko": ""
  },

    "scripts": {
    "on_boot": "check-atl1c.sh"
  }

}
