{
  "mod_version": "v1",
  "files": [
    {
      "name": "atl1c-4.4.180plus-broadwell.tgz",
      "url": "https://gitea.com/oldlei/rp-ext/raw/main/atl1c/releases/atl1c-4.4.180plus-broadwell.tgz",
      "sha256": "9a968751d9c319d4814242b3f7d3d09faa941e474e9546a26df88cd1a2fc24e8",
      "packed": true
    },
    {
      "name": "check-atl1c.sh",
      "url": "https://gitea.com/oldlei/rp-ext/raw/main/atl1c/src/check-atl1c.sh",
      "sha256": "72f49168803fb12840215370379198dfe07c14cc9bf7f9dd82b28fae88162eac",
      "packed": false
    }
  ],
  "kmods": {
    "atl1c.ko": ""
  },
  "scripts": {
    "on_boot": "check-atl1c.sh"
  }
}
