{
  "mod_version": "v1",

  "files": [
    {
      "name": "arcmsr-4.4.180plus.tgz",
      "url": "https://gitea.com/oldlei/rp-ext/raw/main/arcmsr/releases/arcmsr-4.4.180plus.tgz",
      "sha256": "a35fbde715422b915a5e2cef63422757e37ef6ce3c9e96421111a1f5cc5a06a9",
      "packed": true
    },
    {
      "name": "check-arcmsr.sh",
      "url": "https://gitea.com/oldlei/rp-ext/raw/main/arcmsr/src/check-arcmsr.sh",
      "sha256": "3a485445fc8b1bf0e2a0a00ee044e802576912c6007e9d2956c1edc330ece97b",
      "packed": false
    }
  ],

  "kmods": {
    "arcmsr.ko": ""
  },

    "scripts": {
    "on_boot": "check-arcmsr.sh"
  }

}
