{
  "mod_version": "v1",

  "files": [
    {
      "name": "arcmsr-4.4.180plus-geminilake.tgz",
      "url": "https://gitea.com/oldlei/rp-ext/raw/main/arcmsr/releases/arcmsr-4.4.180plus-geminilake.tgz",
      "sha256": "f06c8c99f81ddd44657c5c29d440f8f98944efe1f1e0167d5fa733bd5546e430",
      "packed": true
    },
    {
      "name": "check-arcmsr.sh",
      "url": "https://gitea.com/oldlei/rp-ext/raw/main/arcmsr/src/check-arcmsr.sh",
      "sha256": "3a485445fc8b1bf0e2a0a00ee044e802576912c6007e9d2956c1edc330ece97b",
      "packed": false
    }
  ],

  "kmods": {
    "arcmsr.ko": ""
  },

    "scripts": {
    "on_boot": "check-arcmsr.sh"
  }

}
