{
  "mod_version": "v1",

  "files": [
    {
      "name": "ixgbe-4.4.180plus-broadwell.tgz",
      "url": "https://gitea.com/oldlei/rp-ext/raw/main/ixgbe/releases/ixgbe-4.4.180plus-broadwell.tgz",
      "sha256": "191ed866fe37156fd285aeeafcc8ff954bb579192c9ba6c518e90edc26b2bb4f",
      "packed": true
    },
    {
      "name": "check-ixgbe.sh",
      "url": "https://gitea.com/oldlei/rp-ext/raw/main/ixgbe/src/check-ixgbe.sh",
      "sha256": "af25f8357bc4eb8b300ed0ecd84bf081e1e469a1cd7d9b341289ae7dba2814e6",
      "packed": false
    }
  ],

  "kmods": {
    "dca.ko": "",
    "ixgbe.ko":""
  },

    "scripts": {
    "on_boot": "check-ixgbe.sh"
  }

}
