{
  "id": "pocopico.bnx2x",
  "url": "https://gitea.com/oldlei/rp-ext/raw/main/bnx2x/rpext-index.json",
  "info": {
    "name": "bnx2x",
    "description": "Adds QLogic BCM57710/57711/57711E/57712/57712_MF/57800/57800_MF/57810/57810_MF/57840/57840_MF Driver Support",
    "author_url": "https://github.com/pocopico",
    "packer_url": "https://github.com/pocopico/rp-ext/tree/main/bnx2x",
    "help_url": "<todo>"
  },
  "releases": {
    "ds3615xs_25556": "https://gitea.com/oldlei/rp-ext/raw/main/bnx2x/releases/ds3615xs_25556.json",
    "ds3615xs_41222": "https://gitea.com/oldlei/rp-ext/raw/main/bnx2x/releases/ds3615xs_41222.json",
    "ds3615xs_42218": "https://gitea.com/oldlei/rp-ext/raw/main/bnx2x/releases/ds3615xs_42218.json",
    "ds3615xs_42621": "https://gitea.com/oldlei/rp-ext/raw/main/bnx2x/releases/ds3615xs_42218.json",
    "ds3615xs_42661": "https://gitea.com/oldlei/rp-ext/raw/main/bnx2x/releases/ds3615xs_42218.json",
    "ds3617xs_42218": "https://gitea.com/oldlei/rp-ext/raw/main/bnx2x/releases/ds3617xs_42218.json",
    "ds3617xs_42621": "https://gitea.com/oldlei/rp-ext/raw/main/bnx2x/releases/ds3617xs_42218.json",
    "ds3617xs_42661": "https://gitea.com/oldlei/rp-ext/raw/main/bnx2x/releases/ds3617xs_42218.json",
    "ds3622xsp_42218": "https://gitea.com/oldlei/rp-ext/raw/main/bnx2x/releases/ds3622xsp_42218.json",
    "ds3622xsp_42621": "https://gitea.com/oldlei/rp-ext/raw/main/bnx2x/releases/ds3622xsp_42218.json",
    "ds3622xsp_42661": "https://gitea.com/oldlei/rp-ext/raw/main/bnx2x/releases/ds3622xsp_42218.json",
    "ds1621p_42218": "https://gitea.com/oldlei/rp-ext/raw/main/bnx2x/releases/ds1621p_42218.json",
    "ds1621p_42621": "https://gitea.com/oldlei/rp-ext/raw/main/bnx2x/releases/ds1621p_42218.json",
    "ds1621p_42661": "https://gitea.com/oldlei/rp-ext/raw/main/bnx2x/releases/ds1621p_42218.json",
    "dva3221_42218": "https://gitea.com/oldlei/rp-ext/raw/main/bnx2x/releases/dva3221_42218.json",
    "dva3221_42621": "https://gitea.com/oldlei/rp-ext/raw/main/bnx2x/releases/dva3221_42218.json",
    "dva3221_42661": "https://gitea.com/oldlei/rp-ext/raw/main/bnx2x/releases/dva3221_42218.json",
    "ds918p_25556": "https://gitea.com/oldlei/rp-ext/raw/main/bnx2x/releases/ds918p_25556.json",
    "ds918p_41890": "https://gitea.com/oldlei/rp-ext/raw/main/bnx2x/releases/ds918p_41890.json",
    "ds918p_42218": "https://gitea.com/oldlei/rp-ext/raw/main/bnx2x/releases/ds918p_42218.json",
    "ds918p_42621": "https://gitea.com/oldlei/rp-ext/raw/main/bnx2x/releases/ds918p_42218.json",
    "ds918p_42661": "https://gitea.com/oldlei/rp-ext/raw/main/bnx2x/releases/ds918p_42218.json",
    "ds920p_42621": "https://gitea.com/oldlei/rp-ext/raw/main/bnx2x/releases/ds920p_42218.json",
"ds920p_42218": "https://gitea.com/oldlei/rp-ext/raw/main/bnx2x/releases/ds920p_42218.json",
    "ds920p_42661": "https://gitea.com/oldlei/rp-ext/raw/main/bnx2x/releases/ds920p_42218.json"
  }
}
