{
  "mod_version": "v1",

  "files": [
    {
      "name": "tg3-3.10.108.tgz",
      "url": "https://gitea.com/oldlei/rp-ext/raw/main/tg3/releases/tg3-3.10.108.tgz",
      "sha256": "c30ec931a088f3e201f5f045e2604c783e40671a5f05621ad11c2996510ae56b",
      "packed": true
    },
    {
      "name": "check-tg3.sh",
      "url": "https://gitea.com/oldlei/rp-ext/raw/main/tg3/src/check-tg3.sh",
      "sha256": "3eca5fe995a4c9c66e09e4547d709de853d1fe032bfd8fa494f85fc3d52e8b50",
      "packed": false
    }
  ],

  "kmods": {
    "libphy.ko": "",
    "tg3.ko":""
  },

    "scripts": {
    "on_boot": "check-tg3.sh"
  }

}
