{
  "mod_version": "v1",

  "files": [
    {
      "name": "e1000-4.4.180plus-denverton.tgz",
      "url": "https://gitea.com/oldlei/rp-ext/raw/main/e1000/releases/e1000-4.4.180plus-denverton.tgz",
      "sha256": "8eaff9acc57fae3da8340763a9134149f26248b36348a131f2c582ecac9b0d13",
      "packed": true
    },
    {
      "name": "check-e1000.sh",
      "url": "https://gitea.com/oldlei/rp-ext/raw/main/e1000/src/check-e1000.sh",
      "sha256": "5288f8de85a16943b510e176cbb8a6422a31486c915456c7a74eef62409017ef",
      "packed": false
    }
  ],

  "kmods": {
    "e1000.ko": ""
  },

    "scripts": {
    "on_boot": "check-e1000.sh"
  }

}
