{
  "mod_version": "v1",

  "files": [
    {
      "name": "ax88179_178a-3.10.108.tgz",
      "url": "https://gitea.com/oldlei/rp-ext/raw/main/ax88179_178a/releases/ax88179_178a-3.10.108.tgz",
      "sha256": "d551cb9a1ac3145d0e27aa8194e988d1c970b61a92b598240f8f1017d8ddaae9",
      "packed": true
    },
    {
      "name": "check-ax88179_178a.sh",
      "url": "https://gitea.com/oldlei/rp-ext/raw/main/ax88179_178a/src/check-ax88179_178a.sh",
      "sha256": "a0d2839fe566a0b6d2275d11af7e6eb70c9c0b54282abee9321dd3b429a91282",
      "packed": false
    }
  ],

  "kmods": {
    "usb-common.ko": "",
    "usbcore.ko": "",
    "mii.ko": "",
    "usbnet.ko": "",
    "ax88179_178a.ko":""
  },

    "scripts": {
    "on_boot": "check-ax88179_178a.sh"
  }

}
