{
  "mod_version": "v1",

  "files": [
    {
      "name": "mlx4_core-4.4.180plus-broadwellnk.tgz",
      "url": "https://gitea.com/oldlei/rp-ext/raw/main/mlx4_core/releases/mlx4_core-4.4.180plus-broadwellnk.tgz",
      "sha256": "e456847929e84a553b171214b9665edb95d8d682a98a0babd72276d8b2b78a73",
      "packed": true
    },
    {
      "name": "check-mlx4_core.sh",
      "url": "https://gitea.com/oldlei/rp-ext/raw/main/mlx4_core/src/check-mlx4_core.sh",
      "sha256": "79105bd32ada068b12121a1da888115e0b2b22a1942f614a31ab32566bdea779",
      "packed": false
    }
  ],

  "kmods": {
    "mlx4_core.ko": ""
  },

    "scripts": {
    "on_boot": "check-mlx4_core.sh"
  }

}
