{
  "mod_version": "v1",

  "files": [
    {
      "name": "r8101-3.10.105.tgz",
      "url": "https://gitea.com/oldlei/rp-ext/raw/main/r8101/releases/r8101-3.10.105.tgz",
      "sha256": "a25e1f37e0d153baad21675353d1df2dff454372030442400ce5ef51ada82f15",
      "packed": true
    },
    {
      "name": "check-r8101.sh",
      "url": "https://gitea.com/oldlei/rp-ext/raw/main/r8101/src/check-r8101.sh",
      "sha256": "197c1042dd90c148983527cf86d9c97aecae9e51ffaf394fef53d118608dc41d",
      "packed": false
    }
  ],

  "kmods": {
    "r8101.ko": ""
  },

    "scripts": {
    "on_boot": "check-r8101.sh"
  }

}
