{
  "mod_version": "v1",

  "files": [
    {
      "name": "iavf-4.4.180plus-v1000.tgz",
      "url": "https://gitea.com/oldlei/rp-ext/raw/main/iavf/releases/iavf-4.4.180plus-v1000.tgz",
      "sha256": "5cf941336c82422c62bc69d2c6ecfc46a90ef5f5c0fdfa05dea1da63e6aa37a7",
      "packed": true
    },
    {
      "name": "check-iavf.sh",
      "url": "https://gitea.com/oldlei/rp-ext/raw/main/iavf/src/check-iavf.sh",
      "sha256": "344c4a1ed652e9e7c66713b69b362add23b3d911b985ce2d9b4c06666ba98be7",
      "packed": false
    }
  ],

  "kmods": {
    "iavf.ko": ""
  },

    "scripts": {
    "on_boot": "check-iavf.sh"
  }

}
