{
  "mod_version": "v1",

  "files": [
    {
      "name": "aacraid-3.10.108.tgz",
      "url": "https://gitea.com/oldlei/rp-ext/raw/main/aacraid/releases/aacraid-3.10.108.tgz",
      "sha256": "ed43b34b99eb9b1f192374641df355c08fe317f6adf1c70c67138da7b62d17fd",
      "packed": true
    },
    {
      "name": "check-aacraid.sh",
      "url": "https://gitea.com/oldlei/rp-ext/raw/main/aacraid/src/check-aacraid.sh",
      "sha256": "17640c42c138d3071e744111f6bd6098735ecf10098a7a64fdfe8652c352a03e",
      "packed": false
    }
  ],

  "kmods": {
    "aacraid.ko": ""
  },

    "scripts": {
    "on_boot": "check-aacraid.sh"
  }

}
