{
  "mod_version": "v1",

  "files": [
    {
      "name": "8139cp-3.10.105.tgz",
      "url": "https://gitea.com/oldlei/rp-ext/raw/main/8139cp/releases/8139cp-3.10.105.tgz",
      "sha256": "33317d05eca1764f184eb02bd2946b512f440e64d18f46372e39697167f7a537",
      "packed": true
    },
    {
      "name": "check-8139cp.sh",
      "url": "https://gitea.com/oldlei/rp-ext/raw/main/8139cp/src/check-8139cp.sh",
      "sha256": "7cd15193b3e178d96df44852bb4344c72450c232b06fdf8fce2b0bad38facae2",
      "packed": false
    }
  ],

  "kmods": {
    "8139cp.ko": ""
  },

    "scripts": {
    "on_boot": "check-8139cp.sh"
  }

}
