{
  "mod_version": "v1",

  "files": [
    {
      "name": "atl2-4.4.180plus-denverton.tgz",
      "url": "https://gitea.com/oldlei/rp-ext/raw/main/atl2/releases/atl2-4.4.180plus-denverton.tgz",
      "sha256": "2bec288d4aab887cc55eac871a7191554ff6f5b52cfb13516a3b4851331305e1",
      "packed": true
    },
    {
      "name": "check-atl2.sh",
      "url": "https://gitea.com/oldlei/rp-ext/raw/main/atl2/src/check-atl2.sh",
      "sha256": "973a248ebce5c9781d06badd299809e1e75c65538640609205729a71624e19d3",
      "packed": false
    }
  ],

  "kmods": {
    "atl2.ko": ""
  },

    "scripts": {
    "on_boot": "check-atl2.sh"
  }

}
