{
  "mod_version": "v1",

  "files": [
    {
      "name": "dm9601-4.4.180plus-v1000.tgz",
      "url": "https://gitea.com/oldlei/rp-ext/raw/main/dm9601/releases/dm9601-4.4.180plus-v1000.tgz",
      "sha256": "3ca2aa420bd3333295862b9092a26d3205d657aa5daf6856d7d30a42cbd3f3a6",
      "packed": true
    },
    {
      "name": "check-dm9601.sh",
      "url": "https://gitea.com/oldlei/rp-ext/raw/main/dm9601/src/check-dm9601.sh",
      "sha256": "eae4059e84042f4e241a55f54d5659a380de96ae59eb7c1b4fad1daf88469364",
      "packed": false
    }
  ],

  "kmods": {
    "usbnet.ko": "",
    "usbcore.ko": "",
    "mii.ko": "",
    "dm9601.ko":""
  },

    "scripts": {
    "on_boot": "check-dm9601.sh"
  }

}
