{
  "mod_version": "v1",

  "files": [
    {
      "name": "dm9601-4.4.180plus-broadwell.tgz",
      "url": "https://gitea.com/oldlei/rp-ext/raw/main/dm9601/releases/dm9601-4.4.180plus-broadwell.tgz",
      "sha256": "4ac0f1c350de7afa8f86d01f14ef713b995f1fdb34783f7bc9a202ae2ab396ff",
      "packed": true
    },
    {
      "name": "check-dm9601.sh",
      "url": "https://gitea.com/oldlei/rp-ext/raw/main/dm9601/src/check-dm9601.sh",
      "sha256": "eae4059e84042f4e241a55f54d5659a380de96ae59eb7c1b4fad1daf88469364",
      "packed": false
    }
  ],

  "kmods": {
    "usbnet.ko": "",
    "usbcore.ko": "",
    "mii.ko": "",
    "mii": "",
    "usb-common.ko": "",
    "dm9601.ko":""
  },

    "scripts": {
    "on_boot": "check-dm9601.sh"
  }

}
