{
  "mod_version": "v1",

  "files": [
    {
      "name": "dm9601-4.4.180plus.tgz",
      "url": "https://gitea.com/oldlei/rp-ext/raw/main/dm9601/releases/dm9601-4.4.180plus.tgz",
      "sha256": "42b9ac269410442f035b0165be706f2df215dfca219d9e0467783f2486251451",
      "packed": true
    },
    {
      "name": "check-dm9601.sh",
      "url": "https://gitea.com/oldlei/rp-ext/raw/main/dm9601/src/check-dm9601.sh",
      "sha256": "eae4059e84042f4e241a55f54d5659a380de96ae59eb7c1b4fad1daf88469364",
      "packed": false
    }
  ],

  "kmods": {
    "usbnet.ko": "",
    "usbcore.ko": "",
    "mii.ko": "",
    "dm9601.ko":""
  },

    "scripts": {
    "on_boot": "check-dm9601.sh"
  }

}
