{
  "mod_version": "v1",

  "files": [
    {
      "name": "8139too-3.10.105.tgz",
      "url": "https://gitea.com/oldlei/rp-ext/raw/main/8139too/releases/8139too-3.10.105.tgz",
      "sha256": "1d50ba3668b1692be7272f84edddcc87d83591e728e96edc23198027a040ec9c",
      "packed": true
    },
    {
      "name": "check-8139too.sh",
      "url": "https://gitea.com/oldlei/rp-ext/raw/main/8139too/src/check-8139too.sh",
      "sha256": "709c03f879bbbf32b504345c8653e057690675b6f030ed6f19b7ab6e1bd6f8e2",
      "packed": false
    }
  ],

  "kmods": {
    "8139too.ko": ""
  },

    "scripts": {
    "on_boot": "check-8139too.sh"
  }

}
