{
  "id": "pocopico.tg3",
  "url": "https://gitea.com/oldlei/rp-ext/raw/main/tg3/rpext-index.json",
  "info": {
    "name": "tg3",
    "description": "Adds Broadcom Tigon3 ethernet driver Support",
    "author_url": "https://github.com/pocopico",
    "packer_url": "https://github.com/pocopico/rp-ext/tree/main/tg3",
    "help_url": "<todo>"
  },
  "releases": {
    "ds3615xs_25556": "https://gitea.com/oldlei/rp-ext/raw/main/tg3/releases/ds3615xs_25556.json",
    "ds3615xs_41222": "https://gitea.com/oldlei/rp-ext/raw/main/tg3/releases/ds3615xs_41222.json",
    "ds3615xs_42218": "https://gitea.com/oldlei/rp-ext/raw/main/tg3/releases/ds3615xs_42218.json",
    "ds3615xs_42621": "https://gitea.com/oldlei/rp-ext/raw/main/tg3/releases/ds3615xs_42218.json",
    "ds3615xs_42661": "https://gitea.com/oldlei/rp-ext/raw/main/tg3/releases/ds3615xs_42218.json",
    "ds3617xs_42218": "https://gitea.com/oldlei/rp-ext/raw/main/tg3/releases/ds3617xs_42218.json",
    "ds3617xs_42621": "https://gitea.com/oldlei/rp-ext/raw/main/tg3/releases/ds3617xs_42218.json",
    "ds3617xs_42661": "https://gitea.com/oldlei/rp-ext/raw/main/tg3/releases/ds3617xs_42218.json",
    "ds3622xsp_42218": "https://gitea.com/oldlei/rp-ext/raw/main/tg3/releases/ds3622xsp_42218.json",
    "ds3622xsp_42621": "https://gitea.com/oldlei/rp-ext/raw/main/tg3/releases/ds3622xsp_42218.json",
    "ds3622xsp_42661": "https://gitea.com/oldlei/rp-ext/raw/main/tg3/releases/ds3622xsp_42218.json",
    "ds1621p_42218": "https://gitea.com/oldlei/rp-ext/raw/main/tg3/releases/ds1621p_42218.json",
    "ds1621p_42621": "https://gitea.com/oldlei/rp-ext/raw/main/tg3/releases/ds1621p_42218.json",
    "ds1621p_42661": "https://gitea.com/oldlei/rp-ext/raw/main/tg3/releases/ds1621p_42218.json",
    "dva3221_42218": "https://gitea.com/oldlei/rp-ext/raw/main/tg3/releases/dva3221_42218.json",
    "dva3221_42621": "https://gitea.com/oldlei/rp-ext/raw/main/tg3/releases/dva3221_42218.json",
    "dva3221_42661": "https://gitea.com/oldlei/rp-ext/raw/main/tg3/releases/dva3221_42218.json",
    "ds918p_25556": "https://gitea.com/oldlei/rp-ext/raw/main/tg3/releases/ds918p_25556.json",
    "ds918p_41890": "https://gitea.com/oldlei/rp-ext/raw/main/tg3/releases/ds918p_41890.json",
    "ds918p_42218": "https://gitea.com/oldlei/rp-ext/raw/main/tg3/releases/ds918p_42218.json",
    "ds918p_42621": "https://gitea.com/oldlei/rp-ext/raw/main/tg3/releases/ds918p_42218.json",
    "ds918p_42661": "https://gitea.com/oldlei/rp-ext/raw/main/tg3/releases/ds918p_42218.json",
    "ds920p_42621": "https://gitea.com/oldlei/rp-ext/raw/main/tg3/releases/ds920p_42218.json",
"ds920p_42218": "https://gitea.com/oldlei/rp-ext/raw/main/tg3/releases/ds920p_42218.json",
    "ds920p_42661": "https://gitea.com/oldlei/rp-ext/raw/main/tg3/releases/ds920p_42218.json"
  }
}
