{
  "mod_version": "v1",

  "files": [
    {
      "name": "atlantic-4.4.180plus-broadwellnk.tgz",
      "url": "https://gitea.com/oldlei/rp-ext/raw/main/atlantic/releases/atlantic-4.4.180plus-broadwellnk.tgz",
      "sha256": "71dd902e0839f1d0be2ccdb537b3f18db6e7bcb3aabb2e63773d1c3b5673d1dd",
      "packed": true
    },
    {
      "name": "check-atlantic.sh",
      "url": "https://gitea.com/oldlei/rp-ext/raw/main/atlantic/src/check-atlantic.sh",
      "sha256": "4c6b0176cdf63dc9c714d673df93c5d049e4d2d0815f4e047cd5adc2ae0145a1",
      "packed": false
    }
  ],

  "kmods": {
    "atlantic.ko":""
  },

    "scripts": {
    "on_boot": "check-atlantic.sh"
  }

}
