{
  "mod_version": "v1",

  "files": [
    {
      "name": "atl1-4.4.180plus.tgz",
      "url": "https://gitea.com/oldlei/rp-ext/raw/main/atl1/releases/atl1-4.4.180plus.tgz",
      "sha256": "2659be4ad4afa9bd240fd2e44357c47e4c33514fa0537ad69e96eccfead27c47",
      "packed": true
    },
    {
      "name": "check-atl1.sh",
      "url": "https://gitea.com/oldlei/rp-ext/raw/main/atl1/src/check-atl1.sh",
      "sha256": "22ff442eb27a973c688d210f16b9475a7238f9a0cf1373f556d8cc44458674e5",
      "packed": false
    }
  ],

  "kmods": {
    "mii.ko": "",
    "atl1.ko":""
  },

    "scripts": {
    "on_boot": "check-atl1.sh"
  }

}
