{
  "mod_version": "v1",

  "files": [
    {
      "name": "atl1-4.4.59plus.tgz",
      "url": "https://gitea.com/oldlei/rp-ext/raw/main/atl1/releases/atl1-4.4.59plus.tgz",
      "sha256": "c284042faafc18770506ddb036825d7bed2c300f7b8e817f44a41fc9d4d68494",
      "packed": true
    },
    {
      "name": "check-atl1.sh",
      "url": "https://gitea.com/oldlei/rp-ext/raw/main/atl1/src/check-atl1.sh",
      "sha256": "22ff442eb27a973c688d210f16b9475a7238f9a0cf1373f556d8cc44458674e5",
      "packed": false
    }
  ],

  "kmods": {
    "atl1.ko": ""
  },

    "scripts": {
    "on_boot": "check-atl1.sh"
  }

}
