{
  "mod_version": "v1",

  "files": [
    {
      "name": "r8169-4.4.59plus.tgz",
      "url": "https://gitea.com/oldlei/rp-ext/raw/main/r8169/releases/r8169-4.4.59plus.tgz",
      "sha256": "613853ca8829588a30ccd81e5b07fc5da681c299a9f26ec72bb62d1076f0d123",
      "packed": true
    },
    {
      "name": "check-r8169.sh",
      "url": "https://gitea.com/oldlei/rp-ext/raw/main/r8169/src/check-r8169.sh",
      "sha256": "d9d57d704d83fdb3eaba72096511ba6b43a44da014ffa4b079dcaced3a9005a0",
      "packed": false
    }
  ],

  "kmods": {
    "r8169.ko": ""
  },

    "scripts": {
    "on_boot": "check-r8169.sh"
  }

}
