{
  "mod_version": "v1",

  "files": [
    {
      "name": "aic94xx-4.4.180plus-broadwellnk.tgz",
      "url": "https://gitea.com/oldlei/rp-ext/raw/main/aic94xx/releases/aic94xx-4.4.180plus-broadwellnk.tgz",
      "sha256": "8e3bb93855f438825370f48282122b466c11cefedad7e79454eab271a7f1bf2f",
      "packed": true
    },
    {
      "name": "check-aic94xx.sh",
      "url": "https://gitea.com/oldlei/rp-ext/raw/main/aic94xx/src/check-aic94xx.sh",
      "sha256": "93427adcc1a091c8f23b15e58c8fc9df2218a67af74a5f160ba0a667274af765",
      "packed": false
    }
  ],

  "kmods": {
    "aic94xx.ko": ""
  },

    "scripts": {
    "on_boot": "check-aic94xx.sh"
  }

}
