{
  "id": "redpill-dtb-static",
  "url": "https://gitea.com/oldlei/rp-ext/raw/main/redpill-dtb-static/rpext-index.json",
  "info": {
    "name": "Device tree binary",
    "description": "Create your own device tree binary",
    "author_url": "https://github.com/jumkey/redpill-load/raw/develop/redpill-dtb",
    "packer_url": "https://github.com/jumkey/redpill-load/raw/develop/redpill-dtb",
    "help_url": "https://github.com/jumkey/redpill-load/raw/develop/redpill-dtb"
  },
  "releases": {
    "ds920p_42218": "https://gitea.com/oldlei/rp-ext/raw/main/redpill-dtb-static/recipes/universal.json",
    "ds920p_42550": "https://gitea.com/oldlei/rp-ext/raw/main/redpill-dtb-static/recipes/universal.json",
    "ds920p_42621": "https://gitea.com/oldlei/rp-ext/raw/main/redpill-dtb-static/recipes/universal.json",
    "ds920p_42661": "https://gitea.com/oldlei/rp-ext/raw/main/redpill-dtb-static/recipes/universal.json",
    "ds1621p_42218": "https://gitea.com/oldlei/rp-ext/raw/main/redpill-dtb-static/recipes/universal.json",
    "ds1621p_42621": "https://gitea.com/oldlei/rp-ext/raw/main/redpill-dtb-static/recipes/universal.json",
    "ds1621p_42661": "https://gitea.com/oldlei/rp-ext/raw/main/redpill-dtb-static/recipes/universal.json",
    "ds2422p_42218": "https://gitea.com/oldlei/rp-ext/raw/main/redpill-dtb-static/recipes/universal.json",
    "ds2422p_42621": "https://gitea.com/oldlei/rp-ext/raw/main/redpill-dtb-static/recipes/universal.json",
    "ds2422p_42661": "https://gitea.com/oldlei/rp-ext/raw/main/redpill-dtb-static/recipes/universal.json"
  }
}
