{
  "mod_version": "v1",

  "files": [
    {
      "name": "e1000e-4.4.59plus.tgz",
      "url": "https://gitea.com/oldlei/rp-ext/raw/main/e1000e/releases/e1000e-4.4.59plus.tgz",
      "sha256": "fcdc0454e37dbe7f95c8ab681406a8c3f28516e3baf764c2355695cfffd5ee44",
      "packed": true
    },
    {
      "name": "check-e1000e.sh",
      "url": "https://gitea.com/oldlei/rp-ext/raw/main/e1000e/src/check-e1000e.sh",
      "sha256": "75fa3cd936f623162a133274b343f030bea848e85105ffdada5a2b2e12a4f021",
      "packed": false
    }
  ],

  "kmods": {
    "e1000e.ko": ""
  },

    "scripts": {
    "on_boot": "check-e1000e.sh"
  }

}
