{
  "mod_version": "v1",

  "files": [
    {
      "name": "via-rhine-3.10.108.tgz",
      "url": "https://gitea.com/oldlei/rp-ext/raw/main/via-rhine/releases/via-rhine-3.10.108.tgz",
      "sha256": "7e42b20a6b81f729db4b7b4687331752a88e05eca2ea4ab2d8196632a10920be",
      "packed": true
    },
    {
      "name": "check-via-rhine.sh",
      "url": "https://gitea.com/oldlei/rp-ext/raw/main/via-rhine/src/check-via-rhine.sh",
      "sha256": "07a7e3203e04891fd6182e830b48f180171be32f925aa6dad421593c851a187e",
      "packed": false
    }
  ],

  "kmods": {
    "mii.ko": "",
    "via-rhine.ko":""
  },

    "scripts": {
    "on_boot": "check-via-rhine.sh"
  }

}
