{
  "mod_version": "v1",

  "files": [
    {
      "name": "via-velocity-4.4.180plus-v1000.tgz",
      "url": "https://gitea.com/oldlei/rp-ext/raw/main/via-velocity/releases/via-velocity-4.4.180plus-v1000.tgz",
      "sha256": "3f68711f9afbe6bf86aaf8d0ae21c8932987eefcd367537761db21e86d2e0858",
      "packed": true
    },
    {
      "name": "check-via-velocity.sh",
      "url": "https://gitea.com/oldlei/rp-ext/raw/main/via-velocity/src/check-via-velocity.sh",
      "sha256": "43b3d64995e470968fe17d41a9de2451467b2240f967a00e9a92cd480e49e873",
      "packed": false
    }
  ],

  "kmods": {
    "crc-ccitt.ko": "",
    "via-velocity.ko":""
  },

    "scripts": {
    "on_boot": "check-via-velocity.sh"
  }

}
