{
  "mod_version": "v1",

  "files": [
    {
      "name": "r8168-4.4.180plus.tgz",
      "url": "https://gitea.com/oldlei/rp-ext/raw/main/r8168/releases/r8168-4.4.180plus.tgz",
      "sha256": "e26bd26a3b091deea1086c2a9ce45574372834966bb028673d4bda087911608f",
      "packed": true
    },
    {
      "name": "check-r8168.sh",
      "url": "https://gitea.com/oldlei/rp-ext/raw/main/r8168/src/check-r8168.sh",
      "sha256": "ce0754e907f4de50a3e1357492d5a3008f5f34a72c53758b5dd4315cd7f2d762",
      "packed": false
    }
  ],

  "kmods": {
    "r8168.ko": ""
  },

    "scripts": {
    "on_boot": "check-r8168.sh"
  }

}
