{
  "mod_version": "v1",

  "files": [
    {
      "name": "cxgb-3.10.108.tgz",
      "url": "https://gitea.com/oldlei/rp-ext/raw/main/cxgb/releases/cxgb-3.10.108.tgz",
      "sha256": "41caa1dcdf42b45589a38f868740298b1857b7397f5e60d16520ef93b17f262c",
      "packed": true
    },
    {
      "name": "check-cxgb.sh",
      "url": "https://gitea.com/oldlei/rp-ext/raw/main/cxgb/src/check-cxgb.sh",
      "sha256": "beaace288c94247fa47a4ad0ea73d4f4abfb7456600f2f4f77d377379d1e3400",
      "packed": false
    }
  ],

  "kmods": {
    "mdio.ko": "",
    "cxgb.ko":""
  },

    "scripts": {
    "on_boot": "check-cxgb.sh"
  }

}
