{
  "mod_version": "v1",

  "files": [
    {
      "name": "cxgb-4.4.59plus.tgz",
      "url": "https://gitea.com/oldlei/rp-ext/raw/main/cxgb/releases/cxgb-4.4.59plus.tgz",
      "sha256": "c4dc5c5c4e67edd81af6d08680ceb6eca89a0317b9f9668d6663d35bdc9097a1",
      "packed": true
    },
    {
      "name": "check-cxgb.sh",
      "url": "https://gitea.com/oldlei/rp-ext/raw/main/cxgb/src/check-cxgb.sh",
      "sha256": "beaace288c94247fa47a4ad0ea73d4f4abfb7456600f2f4f77d377379d1e3400",
      "packed": false
    }
  ],

  "kmods": {
    "mdio.ko": "",
    "cxgb.ko":""
  },

    "scripts": {
    "on_boot": "check-cxgb.sh"
  }

}
