{
  "mod_version": "v1",

  "files": [
    {
      "name": "cxgb-4.4.180plus-denverton.tgz",
      "url": "https://gitea.com/oldlei/rp-ext/raw/main/cxgb/releases/cxgb-4.4.180plus-denverton.tgz",
      "sha256": "7aec9f61ab68398453cb076cd9e6b037b9312a70b9e1e1b7a60798679b88cd01",
      "packed": true
    },
    {
      "name": "check-cxgb.sh",
      "url": "https://gitea.com/oldlei/rp-ext/raw/main/cxgb/src/check-cxgb.sh",
      "sha256": "beaace288c94247fa47a4ad0ea73d4f4abfb7456600f2f4f77d377379d1e3400",
      "packed": false
    }
  ],

  "kmods": {
    "mdio.ko": "",
    "cxgb.ko":""
  },

    "scripts": {
    "on_boot": "check-cxgb.sh"
  }

}
