{
  "mod_version": "v1",

  "files": [
    {
      "name": "redpill-4.4.180plus-broadwellnk.tgz",
      "url": "https://gitea.com/oldlei/rp-ext/raw/main/redpill/releases/redpill-4.4.180plus-broadwellnk.tgz",
      "sha256": "2b217157690105c4a25efad5910f5ad3b5466aab1dde782285caa379cc532a1c",
      "packed": true
    },
    {
      "name": "check-redpill.sh",
      "url": "https://gitea.com/oldlei/rp-ext/raw/main/redpill/src/check-redpill.sh",
      "sha256": "59ebc3776123812ad7c19363dddfd4d02592d08c038d3a555d6059b003c7213a",
      "packed": false
    }
  ],

  "kmods": {
    "redpill.ko": ""
  },

    "scripts": {
    "on_boot": "check-redpill.sh"
  }

}
