{
  "mod_version": "v1",

  "files": [
    {
      "name": "redpill-4.4.180plus.tgz",
      "url": "https://gitea.com/oldlei/rp-ext/raw/main/redpill/releases/redpill-4.4.180plus.tgz",
      "sha256": "02789f9ffef337c8d990446c12591a456cca3b25797dddfc9436993b2584f790",
      "packed": true
    }
  ],

  "kmods": {
    "redpill.ko": ""
  },

    "scripts": {
  }

}
