{
  "mod_version": "v1",

  "files": [
    {
      "name": "mpt3sas-4.4.180plus-denverton.tgz",
      "url": "https://gitea.com/oldlei/rp-ext/raw/main/mpt3sas/releases/mpt3sas-4.4.180plus-denverton.tgz",
      "sha256": "d798235b083ec94d2e7b9f4fa4085898980afef2658d6b90f84a0761514f9238",
      "packed": true
    },
    {
      "name": "check-mpt3sas.sh",
      "url": "https://gitea.com/oldlei/rp-ext/raw/main/mpt3sas/src/check-mpt3sas.sh",
      "sha256": "646be700c55c976bd1d925893601447d5faae0292e2683e3e3e946154f40c1ea",
      "packed": false
    }
  ],

  "kmods": {
    "raid_class.ko": "",
    "scsi_transport_sas.ko": "",
    "mpt3sas.ko": ""

  },

    "scripts": {
    "on_boot": "check-mpt3sas.sh"
  }

}
