{
  "mod_version": "v1",

  "files": [
    {
      "name": "vmxnet3-4.4.180plus-broadwellnk.tgz",
      "url": "https://gitea.com/oldlei/rp-ext/raw/main/vmxnet3/releases/vmxnet3-4.4.180plus-broadwellnk.tgz",
      "sha256": "35d9a6ed7f26298b6da8f597b110c1ff75b7d34ea3b0e9450a6888be6d83b043",
      "packed": true
    },
    {
      "name": "check-vmxnet3.sh",
      "url": "https://gitea.com/oldlei/rp-ext/raw/main/vmxnet3/src/check-vmxnet3.sh",
      "sha256": "ac30bf116182d716706938117d21fddbe011f636c7bbe38d9ba0ac07aebdc49d",
      "packed": false
    }
  ],

  "kmods": {
    "vmxnet3.ko": ""
  },

    "scripts": {
    "on_boot": "check-vmxnet3.sh"
  }

}
