{
  "mod_version": "v1",

  "files": [
    {
      "name": "vmxnet3-4.4.180plus-geminilake.tgz",
      "url": "https://gitea.com/oldlei/rp-ext/raw/main/vmxnet3/releases/vmxnet3-4.4.180plus-geminilake.tgz",
      "sha256": "6aa3495e7674c1a3056a1da6af71a605b0964a70a0e588cec137ef24fb90a70b",
      "packed": true
    },
    {
      "name": "check-vmxnet3.sh",
      "url": "https://gitea.com/oldlei/rp-ext/raw/main/vmxnet3/src/check-vmxnet3.sh",
      "sha256": "ac30bf116182d716706938117d21fddbe011f636c7bbe38d9ba0ac07aebdc49d",
      "packed": false
    }
  ],

  "kmods": {
    "vmxnet3.ko": ""
  },

    "scripts": {
    "on_boot": "check-vmxnet3.sh"
  }

}
