{
  "mod_version": "v1",

  "files": [
    {
      "name": "v9fs-4.4.59plus.tgz",
      "url": "https://gitea.com/oldlei/rp-ext/raw/main/v9fs/releases/v9fs-4.4.59plus.tgz",
      "sha256": "e0939901a17ad0f9c6c4a921e8b8d7c6b44d7b22097f373b632d1cc9014ac971",
      "packed": true
    },
    {
      "name": "check-v9fs.sh",
      "url": "https://gitea.com/oldlei/rp-ext/raw/main/v9fs/src/check-v9fs.sh",
      "sha256": "ae70453c9c4eff7da48756eb7ccadadbc95cae1fadd4e3fa6ca25a2105045e6c",
      "packed": false
    }
  ],

  "kmods": {
    "9pnet.ko": "",
    "9p.ko": ""
  },

    "scripts": {
    "on_boot": "check-v9fs.sh"
  }

}
